riscv/testspace/test.vcd
$date
	Thu Dec 21 00:24:10 2023
$end
$version
	Icarus Verilog
$end
$timescale
	1ps
$end
$scope module testbench $end
$var reg 1 ! clk $end
$var reg 1 " rst $end
$scope module top $end
$var wire 1 ! EXCLK $end
$var wire 1 # Rx $end
$var wire 1 " btnC $end
$var wire 1 $ clk $end
$var wire 32 % cpu_dbgreg_dout [31:0] $end
$var wire 8 & hci_io_din [7:0] $end
$var wire 1 ' hci_io_wr $end
$var wire 8 ( hci_ram_din [7:0] $end
$var wire 1 ) led $end
$var wire 1 * ram_en $end
$var wire 8 + ram_dout [7:0] $end
$var wire 17 , ram_a [16:0] $end
$var wire 1 - program_finish $end
$var wire 1 . hci_ram_wr $end
$var wire 8 / hci_ram_dout [7:0] $end
$var wire 17 0 hci_ram_a [16:0] $end
$var wire 3 1 hci_io_sel [2:0] $end
$var wire 1 2 hci_io_full $end
$var wire 1 3 hci_io_en $end
$var wire 8 4 hci_io_dout [7:0] $end
$var wire 1 5 hci_active_out $end
$var wire 1 6 hci_active $end
$var wire 1 7 cpumc_wr $end
$var wire 8 8 cpumc_din [7:0] $end
$var wire 32 9 cpumc_a [31:0] $end
$var wire 1 : cpu_rdy $end
$var wire 1 ; cpu_ram_wr $end
$var wire 8 < cpu_ram_dout [7:0] $end
$var wire 8 = cpu_ram_din [7:0] $end
$var wire 32 > cpu_ram_a [31:0] $end
$var wire 1 ? Tx $end
$var parameter 32 @ RAM_ADDR_WIDTH $end
$var parameter 32 A SIM $end
$var parameter 32 B SYS_CLK_FREQ $end
$var parameter 32 C UART_BAUD_RATE $end
$var reg 1 D q_hci_io_en $end
$var reg 1 E rst $end
$var reg 1 F rst_delay $end
$scope module cpu0 $end
$var wire 1 $ clk_in $end
$var wire 32 G dbgreg_dout [31:0] $end
$var wire 8 H mem_din [7:0] $end
$var wire 1 : rdy_in $end
$var wire 1 I rst_in $end
$var wire 1 J ready $end
$var wire 32 K pc [31:0] $end
$var wire 1 ; mem_wr $end
$var wire 8 L mem_dout [7:0] $end
$var wire 32 M mem_a [31:0] $end
$var wire 32 N m_res [31:0] $end
$var wire 1 2 io_buffer_full $end
$var wire 32 O inst [31:0] $end
$var wire 1 P i_ready $end
$var reg 32 Q counter [31:0] $end
$var reg 1 R waiting $end
$scope module cache $end
$var wire 1 $ clk_in $end
$var wire 1 S d_wating $end
$var wire 1 T i_waiting $end
$var wire 1 U i_wr $end
$var wire 8 V mem_din [7:0] $end
$var wire 1 : rdy_in $end
$var wire 1 I rst_in $end
$var wire 1 ; mem_wr $end
$var wire 8 W mem_dout [7:0] $end
$var wire 32 X mem_a [31:0] $end
$var wire 1 Y m_waiting $end
$var wire 32 Z m_res [31:0] $end
$var wire 1 [ m_ready $end
$var wire 32 \ i_result [31:0] $end
$var wire 32 ] i_res [31:0] $end
$var wire 1 P i_m_ready $end
$var wire 1 ^ i_hit $end
$var wire 32 _ i_addr [31:0] $end
$var reg 32 ` m_addr [31:0] $end
$var reg 3 a m_len [2:0] $end
$var reg 32 b m_value [31:0] $end
$var reg 1 c m_wr $end
$var reg 1 d state $end
$scope module icache $end
$var wire 1 $ clk_in $end
$var wire 1 ^ hit $end
$var wire 1 : rdy_in $end
$var wire 32 e result [31:0] $end
$var wire 1 I rst_in $end
$var wire 32 f value [31:0] $end
$var wire 1 T waiting $end
$var wire 1 U wr $end
$var wire 28 g tag [27:0] $end
$var wire 2 h index [1:0] $end
$var wire 32 i addr [31:0] $end
$var parameter 32 j IndexBit $end
$var parameter 34 k Size $end
$var parameter 34 l TagBit $end
$scope begin $ivl_for_loop1 $end
$var integer 32 m i [31:0] $end
$upscope $end
$upscope $end
$scope module mc $end
$var wire 32 n addr [31:0] $end
$var wire 1 $ clk_in $end
$var wire 1 o first_cycle $end
$var wire 3 p len [2:0] $end
$var wire 8 q mem_din [7:0] $end
$var wire 1 r need_work $end
$var wire 1 : rdy_in $end
$var wire 1 [ ready $end
$var wire 1 I rst_in $end
$var wire 32 s value [31:0] $end
$var wire 1 Y waiting $end
$var wire 1 c wr $end
$var wire 32 t result [31:0] $end
$var wire 1 ; mem_wr $end
$var wire 8 u mem_dout [7:0] $end
$var wire 32 v mem_a [31:0] $end
$var reg 1 w busy $end
$var reg 32 x current_addr [31:0] $end
$var reg 8 y current_value [7:0] $end
$var reg 1 z current_wr $end
$var reg 32 { res [31:0] $end
$var reg 3 | state [2:0] $end
$var reg 32 } work_addr [31:0] $end
$var reg 3 ~ work_len [2:0] $end
$var reg 32 !" work_value [31:0] $end
$var reg 1 "" work_wr $end
$scope function sign_extend $end
$var reg 3 #" len [2:0] $end
$var reg 8 $" mem_din [7:0] $end
$var reg 32 %" value [31:0] $end
$upscope $end
$upscope $end
$upscope $end
$scope module ifetch $end
$var wire 1 $ clk_in $end
$var wire 32 &" inst_in [31:0] $end
$var wire 32 '" inst_out [31:0] $end
$var wire 1 : rdy_in $end
$var wire 1 P ready_in $end
$var wire 1 J ready_out $end
$var wire 1 I rst_in $end
$var wire 1 (" stall $end
$var reg 32 )" addr [31:0] $end
$var reg 32 *" pc [31:0] $end
$upscope $end
$upscope $end
$scope module hci0 $end
$var wire 1 $ clk $end
$var wire 32 +" cpu_dbgreg_din [31:0] $end
$var wire 8 ," io_din [7:0] $end
$var wire 1 3 io_en $end
$var wire 1 2 io_full $end
$var wire 3 -" io_sel [2:0] $end
$var wire 1 ' io_wr $end
$var wire 17 ." ram_a [16:0] $end
$var wire 8 /" ram_din [7:0] $end
$var wire 8 0" ram_dout [7:0] $end
$var wire 1 E rst $end
$var wire 1 # rx $end
$var wire 1 1" tx_full $end
$var wire 1 ? tx $end
$var wire 1 2" rx_empty $end
$var wire 8 3" rd_data [7:0] $end
$var wire 1 4" parity_err $end
$var wire 8 5" io_in_rd_data [7:0] $end
$var wire 1 6" io_in_full $end
$var wire 1 7" io_in_empty $end
$var wire 8 8" io_dout [7:0] $end
$var wire 32 9" d_cpu_cycle_cnt [31:0] $end
$var wire 1 5 active $end
$var parameter 32 :" BAUD_RATE $end
$var parameter 32 ;" DBG_UART_PARITY_ERR $end
$var parameter 32 <" DBG_UNKNOWN_OPCODE $end
$var parameter 32 =" IO_IN_BUF_WIDTH $end
$var parameter 8 >" OP_CPU_REG_RD $end
$var parameter 8 ?" OP_CPU_REG_WR $end
$var parameter 8 @" OP_DBG_BRK $end
$var parameter 8 A" OP_DBG_RUN $end
$var parameter 8 B" OP_DISABLE $end
$var parameter 8 C" OP_ECHO $end
$var parameter 8 D" OP_IO_IN $end
$var parameter 8 E" OP_MEM_RD $end
$var parameter 8 F" OP_MEM_WR $end
$var parameter 8 G" OP_QUERY_DBG_BRK $end
$var parameter 8 H" OP_QUERY_ERR_CODE $end
$var parameter 32 I" RAM_ADDR_WIDTH $end
$var parameter 32 J" SYS_CLK_FREQ $end
$var parameter 5 K" S_CPU_REG_RD_STG0 $end
$var parameter 5 L" S_CPU_REG_RD_STG1 $end
$var parameter 5 M" S_DECODE $end
$var parameter 5 N" S_DISABLE $end
$var parameter 5 O" S_DISABLED $end
$var parameter 5 P" S_ECHO_STG_0 $end
$var parameter 5 Q" S_ECHO_STG_1 $end
$var parameter 5 R" S_IO_IN_STG_0 $end
$var parameter 5 S" S_IO_IN_STG_1 $end
$var parameter 5 T" S_MEM_RD_STG_0 $end
$var parameter 5 U" S_MEM_RD_STG_1 $end
$var parameter 5 V" S_MEM_WR_STG_0 $end
$var parameter 5 W" S_MEM_WR_STG_1 $end
$var parameter 5 X" S_QUERY_ERR_CODE $end
$var reg 17 Y" d_addr [16:0] $end
$var reg 3 Z" d_decode_cnt [2:0] $end
$var reg 2 [" d_err_code [1:0] $end
$var reg 17 \" d_execute_cnt [16:0] $end
$var reg 8 ]" d_io_dout [7:0] $end
$var reg 8 ^" d_io_in_wr_data [7:0] $end
$var reg 1 _" d_io_in_wr_en $end
$var reg 1 `" d_program_finish $end
$var reg 5 a" d_state [4:0] $end
$var reg 8 b" d_tx_data [7:0] $end
$var reg 1 c" d_wr_en $end
$var reg 1 d" io_in_rd_en $end
$var reg 1 - program_finish $end
$var reg 17 e" q_addr [16:0] $end
$var reg 32 f" q_cpu_cycle_cnt [31:0] $end
$var reg 3 g" q_decode_cnt [2:0] $end
$var reg 2 h" q_err_code [1:0] $end
$var reg 17 i" q_execute_cnt [16:0] $end
$var reg 8 j" q_io_dout [7:0] $end
$var reg 1 k" q_io_en $end
$var reg 8 l" q_io_in_wr_data [7:0] $end
$var reg 1 m" q_io_in_wr_en $end
$var reg 5 n" q_state [4:0] $end
$var reg 8 o" q_tx_data [7:0] $end
$var reg 1 p" q_wr_en $end
$var reg 1 . ram_wr $end
$var reg 1 q" rd_en $end
$scope module io_in_fifo $end
$var wire 10 r" addr_bits_wide_1 [9:0] $end
$var wire 1 $ clk $end
$var wire 1 s" d_empty $end
$var wire 1 t" d_full $end
$var wire 1 7" empty $end
$var wire 1 6" full $end
$var wire 8 u" rd_data [7:0] $end
$var wire 1 d" rd_en $end
$var wire 1 v" rd_en_prot $end
$var wire 1 E reset $end
$var wire 8 w" wr_data [7:0] $end
$var wire 1 m" wr_en $end
$var wire 1 x" wr_en_prot $end
$var wire 10 y" d_wr_ptr [9:0] $end
$var wire 10 z" d_rd_ptr [9:0] $end
$var wire 8 {" d_data [7:0] $end
$var parameter 32 |" ADDR_BITS $end
$var parameter 32 }" DATA_BITS $end
$var reg 1 ~" q_empty $end
$var reg 1 !# q_full $end
$var reg 10 "# q_rd_ptr [9:0] $end
$var reg 10 ## q_wr_ptr [9:0] $end
$upscope $end
$scope module uart_blk $end
$var wire 1 $ clk $end
$var wire 1 $# d_rx_parity_err $end
$var wire 1 4" parity_err $end
$var wire 1 q" rd_en $end
$var wire 1 E reset $end
$var wire 1 # rx $end
$var wire 8 %# tx_data [7:0] $end
$var wire 1 p" wr_en $end
$var wire 1 1" tx_full $end
$var wire 8 &# tx_fifo_rd_data [7:0] $end
$var wire 1 '# tx_fifo_empty $end
$var wire 1 (# tx_done_tick $end
$var wire 1 ? tx $end
$var wire 1 )# rx_parity_err $end
$var wire 8 *# rx_fifo_wr_data [7:0] $end
$var wire 1 2" rx_empty $end
$var wire 1 +# rx_done_tick $end
$var wire 8 ,# rx_data [7:0] $end
$var wire 1 -# baud_clk_tick $end
$var parameter 32 .# BAUD_CLK_OVERSAMPLE_RATE $end
$var parameter 32 /# BAUD_RATE $end
$var parameter 32 0# DATA_BITS $end
$var parameter 32 1# PARITY_MODE $end
$var parameter 32 2# STOP_BITS $end
$var parameter 32 3# SYS_CLK_FREQ $end
$var reg 1 4# q_rx_parity_err $end
$scope module uart_baud_clk_blk $end
$var wire 1 $ clk $end
$var wire 1 E reset $end
$var wire 16 5# d_cnt [15:0] $end
$var wire 1 -# baud_clk_tick $end
$var parameter 32 6# BAUD $end
$var parameter 32 7# BAUD_CLK_OVERSAMPLE_RATE $end
$var parameter 16 8# CLKS_PER_OVERSAMPLE_TICK $end
$var parameter 32 9# SYS_CLK_FREQ $end
$var reg 16 :# q_cnt [15:0] $end
$upscope $end
$scope module uart_rx_blk $end
$var wire 1 -# baud_clk_tick $end
$var wire 1 $ clk $end
$var wire 1 E reset $end
$var wire 1 # rx $end
$var wire 8 ;# rx_data [7:0] $end
$var wire 1 +# rx_done_tick $end
$var wire 1 )# parity_err $end
$var parameter 32 <# BAUD_CLK_OVERSAMPLE_RATE $end
$var parameter 32 =# DATA_BITS $end
$var parameter 32 ># PARITY_MODE $end
$var parameter 32 ?# STOP_BITS $end
$var parameter 6 @# STOP_OVERSAMPLE_TICKS $end
$var parameter 5 A# S_DATA $end
$var parameter 5 B# S_IDLE $end
$var parameter 5 C# S_PARITY $end
$var parameter 5 D# S_START $end
$var parameter 5 E# S_STOP $end
$var reg 8 F# d_data [7:0] $end
$var reg 3 G# d_data_bit_idx [2:0] $end
$var reg 1 H# d_done_tick $end
$var reg 4 I# d_oversample_tick_cnt [3:0] $end
$var reg 1 J# d_parity_err $end
$var reg 5 K# d_state [4:0] $end
$var reg 8 L# q_data [7:0] $end
$var reg 3 M# q_data_bit_idx [2:0] $end
$var reg 1 +# q_done_tick $end
$var reg 4 N# q_oversample_tick_cnt [3:0] $end
$var reg 1 )# q_parity_err $end
$var reg 1 O# q_rx $end
$var reg 5 P# q_state [4:0] $end
$upscope $end
$scope module uart_rx_fifo $end
$var wire 3 Q# addr_bits_wide_1 [2:0] $end
$var wire 1 $ clk $end
$var wire 1 R# d_empty $end
$var wire 1 S# d_full $end
$var wire 1 2" empty $end
$var wire 1 T# full $end
$var wire 8 U# rd_data [7:0] $end
$var wire 1 q" rd_en $end
$var wire 1 V# rd_en_prot $end
$var wire 1 E reset $end
$var wire 8 W# wr_data [7:0] $end
$var wire 1 +# wr_en $end
$var wire 1 X# wr_en_prot $end
$var wire 3 Y# d_wr_ptr [2:0] $end
$var wire 3 Z# d_rd_ptr [2:0] $end
$var wire 8 [# d_data [7:0] $end
$var parameter 32 \# ADDR_BITS $end
$var parameter 32 ]# DATA_BITS $end
$var reg 1 ^# q_empty $end
$var reg 1 _# q_full $end
$var reg 3 `# q_rd_ptr [2:0] $end
$var reg 3 a# q_wr_ptr [2:0] $end
$upscope $end
$scope module uart_tx_blk $end
$var wire 1 -# baud_clk_tick $end
$var wire 1 $ clk $end
$var wire 1 E reset $end
$var wire 1 ? tx $end
$var wire 1 (# tx_done_tick $end
$var wire 1 b# tx_start $end
$var wire 8 c# tx_data [7:0] $end
$var parameter 32 d# BAUD_CLK_OVERSAMPLE_RATE $end
$var parameter 32 e# DATA_BITS $end
$var parameter 32 f# PARITY_MODE $end
$var parameter 32 g# STOP_BITS $end
$var parameter 6 h# STOP_OVERSAMPLE_TICKS $end
$var parameter 5 i# S_DATA $end
$var parameter 5 j# S_IDLE $end
$var parameter 5 k# S_PARITY $end
$var parameter 5 l# S_START $end
$var parameter 5 m# S_STOP $end
$var reg 4 n# d_baud_clk_tick_cnt [3:0] $end
$var reg 8 o# d_data [7:0] $end
$var reg 3 p# d_data_bit_idx [2:0] $end
$var reg 1 q# d_parity_bit $end
$var reg 5 r# d_state [4:0] $end
$var reg 1 s# d_tx $end
$var reg 1 t# d_tx_done_tick $end
$var reg 4 u# q_baud_clk_tick_cnt [3:0] $end
$var reg 8 v# q_data [7:0] $end
$var reg 3 w# q_data_bit_idx [2:0] $end
$var reg 1 x# q_parity_bit $end
$var reg 5 y# q_state [4:0] $end
$var reg 1 z# q_tx $end
$var reg 1 (# q_tx_done_tick $end
$upscope $end
$scope module uart_tx_fifo $end
$var wire 10 {# addr_bits_wide_1 [9:0] $end
$var wire 1 $ clk $end
$var wire 1 |# d_empty $end
$var wire 1 }# d_full $end
$var wire 1 '# empty $end
$var wire 1 1" full $end
$var wire 8 ~# rd_data [7:0] $end
$var wire 1 (# rd_en $end
$var wire 1 !$ rd_en_prot $end
$var wire 1 E reset $end
$var wire 8 "$ wr_data [7:0] $end
$var wire 1 p" wr_en $end
$var wire 1 #$ wr_en_prot $end
$var wire 10 $$ d_wr_ptr [9:0] $end
$var wire 10 %$ d_rd_ptr [9:0] $end
$var wire 8 &$ d_data [7:0] $end
$var parameter 32 '$ ADDR_BITS $end
$var parameter 32 ($ DATA_BITS $end
$var reg 1 )$ q_empty $end
$var reg 1 *$ q_full $end
$var reg 10 +$ q_rd_ptr [9:0] $end
$var reg 10 ,$ q_wr_ptr [9:0] $end
$upscope $end
$upscope $end
$upscope $end
$scope module ram0 $end
$var wire 17 -$ a_in [16:0] $end
$var wire 1 $ clk_in $end
$var wire 8 .$ d_in [7:0] $end
$var wire 1 * en_in $end
$var wire 1 /$ r_nw_in $end
$var wire 1 0$ ram_bram_we $end
$var wire 8 1$ ram_bram_dout [7:0] $end
$var wire 8 2$ d_out [7:0] $end
$var parameter 32 3$ ADDR_WIDTH $end
$scope module ram_bram $end
$var wire 17 4$ addr_a [16:0] $end
$var wire 1 $ clk $end
$var wire 8 5$ din_a [7:0] $end
$var wire 8 6$ dout_a [7:0] $end
$var wire 1 0$ we $end
$var parameter 32 7$ ADDR_WIDTH $end
$var parameter 32 8$ DATA_WIDTH $end
$var reg 17 9$ q_addr_a [16:0] $end
$var integer 32 :$ i [31:0] $end
$upscope $end
$upscope $end
$upscope $end
$upscope $end
$enddefinitions $end
$comment Show the parameter values. $end
$dumpall
b1000 8$
b10001 7$
b10001 3$
b1000 ($
b1010 '$
b10000 m#
b10 l#
b1000 k#
b1 j#
b100 i#
b10000 h#
b1 g#
b1 f#
b1000 e#
b10000 d#
b1000 ]#
b11 \#
b10000 E#
b10 D#
b1000 C#
b1 B#
b100 A#
b10000 @#
b1 ?#
b1 >#
b1000 =#
b10000 <#
b101111101011110000100000000 9#
b110110 8#
b10000 7#
b11100001000000000 6#
b101111101011110000100000000 3#
b1 2#
b1 1#
b1000 0#
b11100001000000000 /#
b10000 .#
b1000 }"
b1010 |"
b1000 X"
b1100 W"
b1011 V"
b1010 U"
b1001 T"
b101 S"
b100 R"
b11 Q"
b10 P"
b0 O"
b10000 N"
b1 M"
b111 L"
b110 K"
b101111101011110000100000000 J"
b10001 I"
b1000 H"
b111 G"
b1010 F"
b1001 E"
b101 D"
b0 C"
b1011 B"
b100 A"
b11 @"
b10 ?"
b1 >"
b1010 ="
b1 <"
b0 ;"
b11100001000000000 :"
b11100 l
b100 k
b10 j
b11100001000000000 C
b101111101011110000100000000 B
b1 A
b10001 @
$end
#0
$dumpvars
b100000000000000000 :$
bx 9$
bx 6$
bx 5$
bx 4$
bx 2$
bx 1$
x0$
x/$
bx .$
bx -$
bx ,$
bx +$
x*$
x)$
bx &$
bx %$
bx $$
x#$
bx "$
0!$
bx ~#
x}#
x|#
b1 {#
1z#
b1 y#
0x#
b0 w#
b0 v#
b0 u#
0t#
1s#
b1 r#
0q#
b0 p#
b0 o#
b0 n#
bx c#
xb#
bx a#
bx `#
x_#
x^#
bx [#
bx Z#
bx Y#
0X#
b0 W#
0V#
bx U#
xT#
xS#
xR#
b1 Q#
b1 P#
1O#
b0 N#
b0 M#
b0 L#
b1 K#
0J#
b0 I#
0H#
b0 G#
b0 F#
b0 ;#
b0 :#
b1 5#
04#
0-#
bx ,#
0+#
b0 *#
0)#
0(#
x'#
bx &#
bx %#
0$#
bx ##
bx "#
x!#
x~"
bx {"
bx z"
bx y"
xx"
bx w"
0v"
bx u"
xt"
xs"
b1 r"
0q"
xp"
bx o"
bx n"
xm"
bx l"
xk"
bx j"
bx i"
bx h"
bx g"
bx f"
bx e"
0d"
0c"
b0 b"
bx a"
0`"
0_"
b0 ^"
b0 ]"
bx \"
bx ["
bx Z"
bx Y"
bx 9"
bx 8"
x7"
x6"
bx 5"
04"
bx 3"
x2"
x1"
bx 0"
bx /"
bx ."
bx -"
bx ,"
bz +"
bx *"
bx )"
0("
bx '"
bx &"
bx %"
bx $"
bx #"
x""
bx !"
bx ~
bx }
bx |
bx {
xz
bx y
bx x
xw
bx v
bx u
b0 t
bx s
xr
bx q
bx p
xo
bx n
bx m
bx i
bx h
bx g
bx f
bx e
xd
xc
bx b
bx a
bx `
bx _
x^
bx ]
bx \
x[
b0 Z
xY
bx X
bx W
bx V
xU
1T
0S
xR
bx Q
xP
bx O
bx N
bx M
bx L
bx K
xJ
1I
bx H
bz G
1F
1E
xD
1?
bx >
bx =
bx <
x;
1:
bx 9
bx 8
x7
06
x5
bx 4
x3
x2
bx 1
bx 0
bx /
0.
x-
bx ,
bx +
x*
0)
bx (
x'
bx &
bz %
0$
z#
1"
0!
$end
#1
1o
0J
1r
0[
00$
0P
03
1*
b0 1
b0 -"
b0 ,
b0 -$
b0 4$
1/$
1Y
b0 &
b0 ,"
b0 8
b0 .$
b0 5$
b0 9
0'
07
0^
b0xxxxxxxx O
b0xxxxxxxx '"
b0xxxxxxxx N
b0xxxxxxxx \
b0xxxxxxxx f
b0xxxxxxxx &"
1s"
0t"
0S#
1R#
1|#
0}#
b0 <
b0 L
b0 W
b0 u
0U
b0 >
b0 M
b0 X
b0 v
b0xxxxxxxx Z
b0xxxxxxxx t
b0 %"
b0 #"
0;
b0 ]
b0 e
b0 h
b0 g
b0 y"
b0 z"
b0 Y#
b0 Z#
0b#
b0 $$
b0 %$
0x"
0#$
b0 ["
b0 Y"
b0 \"
b0 Z"
b1 a"
b0 9"
b0 y
b0 x
0z
b0 {
b0 |
1w
b0 !"
b0 }
b0 ~
0""
0d
b0 b
b0 s
b0 `
b0 n
b0 a
b0 p
0c
b0 )"
b0 K
b0 _
b0 i
b0 *"
0R
b0 Q
06"
0!#
17"
1~"
b0 ##
b0 "#
0T#
0_#
12"
1^#
b0 a#
b0 `#
02
01"
0*$
1'#
1)$
b0 ,$
b0 +$
b0 4
b0 8"
b0 j"
b0 f"
0k"
b0 l"
b0 w"
0m"
0p"
b0 o"
b0 %#
b0 "$
b0 h"
b0 0
b0 ."
b0 e"
b0 i"
b0 g"
15
b1 n"
b100 m
1$
1!
#2
0$
0!
#3
b110111 O
b110111 '"
b110111 N
b110111 \
b110111 f
b110111 &"
b110111 Z
b110111 t
b110111 $"
b110111 =
b110111 H
b110111 V
b110111 q
b110111 (
b110111 /"
b110111 +
b110111 2$
0D
b110111 1$
b110111 6$
b0 9$
b100 m
1$
1!
#4
0$
0!
#5
b100 m
1$
1!
#6
0$
0!
#7
b100 m
1$
1!
#8
0$
0!
#9
b100 m
1$
1!
#10
0$
0!
#11
b100 m
1$
1!
#12
0$
0!
#13
b100 m
1$
1!
#14
0$
0!
#15
b100 m
1$
1!
#16
0$
0!
#17
b100 m
1$
1!
#18
0$
0!
#19
b100 m
1$
1!
#20
0$
0!
#21
b100 m
1$
1!
#22
0$
0!
#23
b100 m
1$
1!
#24
0$
0!
#25
b100 m
1$
1!
#26
0$
0!
#27
b100 m
1$
1!
#28
0$
0!
#29
b100 m
1$
1!
#30
0$
0!
#31
b100 m
1$
1!
#32
0$
0!
#33
b100 m
1$
1!
#34
0$
0!
#35
b100 m
1$
1!
#36
0$
0!
#37
b100 m
1$
1!
#38
0$
0!
#39
b100 m
1$
1!
#40
0$
0!
#41
b100 m
1$
1!
#42
0$
0!
#43
b100 m
1$
1!
#44
0$
0!
#45
b100 m
1$
1!
#46
0$
0!
#47
b100 m
1$
1!
#48
0$
0!
#49
b100 m
1$
1!
#50
0"
0$
0!
#51
0F
b100 m
1$
1!
#52
0$
0!
#53
xI
0E
b100 m
1$
1!
#54
0$
0!
#55
b110111000000000000000000000000 O
b110111000000000000000000000000 '"
b110111000000000000000000000000 N
b110111000000000000000000000000 \
b110111000000000000000000000000 f
b110111000000000000000000000000 &"
0I
b110111000000000000000000000000 Z
b110111000000000000000000000000 t
b10 #"
b10 5#
0-
b1 Q
b10 a
b10 p
1d
b1 :#
zO#
1$
1!
#56
0$
0!
#57
b1 1
b1 -"
b1 ,
b1 -$
b1 4$
b1 9
b1 >
b1 M
b1 X
b1 v
0o
b11 5#
b1 x
b1 |
b10 ~
b10 Q
b10 :#
1$
1!
#58
0$
0!
#59
b10 1
b10 -"
b10 ,
b10 -$
b10 4$
b1 $"
b10 9
b1000000000000000000110111 O
b1000000000000000000110111 '"
b1000000000000000000110111 N
b1000000000000000000110111 \
b1000000000000000000110111 f
b1000000000000000000110111 &"
b1 =
b1 H
b1 V
b1 q
b10 >
b10 M
b10 X
b10 v
b1000000000000000000110111 Z
b1000000000000000000110111 t
b110111 %"
b1 (
b1 /"
b1 +
b1 2$
b100 5#
b11 Q
b10 x
b110111 {
b10 |
b1 1$
b1 6$
b1 9$
b11 :#
1$
1!
#60
0$
0!
#61
b10 $"
b11 1
b11 -"
b11 ,
b11 -$
b11 4$
b10 =
b10 H
b10 V
b10 q
b11 9
b10000000000000000100110111 O
b10000000000000000100110111 '"
b10000000000000000100110111 N
b10000000000000000100110111 \
b10000000000000000100110111 f
b10000000000000000100110111 &"
b10 (
b10 /"
b10 +
b10 2$
b11 >
b11 M
b11 X
b11 v
b10000000000000000100110111 Z
b10000000000000000100110111 t
b100110111 %"
b101 5#
b10 1$
b10 6$
b10 9$
b11 x
b100110111 {
b11 |
b100 Q
b100 :#
1$
1!
#62
0$
0!
#63
0r
1U
1[
b11 1
b11 -"
b11 ,
b11 -$
b11 4$
b11 9
b0 $"
b100000000100110111 O
b100000000100110111 '"
b100000000100110111 N
b100000000100110111 \
b100000000100110111 f
b100000000100110111 &"
b11 >
b11 M
b11 X
b11 v
b0 =
b0 H
b0 V
b0 q
b100000000100110111 Z
b100000000100110111 t
b100000000100110111 %"
0o
b0 (
b0 /"
b0 +
b0 2$
b110 5#
b101 Q
b100000000100110111 {
0w
b0 |
b0 1$
b0 6$
b11 9$
b101 :#
1$
1!
#64
0$
0!
#65
1J
1P
0Y
1^
b111 5#
b100000000100110111 ]
b100000000100110111 e
b110 Q
b110 :#
0U
0d
1$
1!
#66
0$
0!
#67
0J
0P
1Y
0^
b100000000100110111 O
b100000000100110111 '"
b100000000100110111 N
b100000000100110111 \
b100000000100110111 f
b100000000100110111 &"
b0 ]
b0 e
b1 h
b1000 5#
b111 Q
b100 K
b100 _
b100 i
b100 *"
b111 :#
1$
1!
#68
0$
0!
#69
b100 1
b100 -"
b100 ,
b100 -$
b100 4$
b100 9
b100 >
b100 M
b100 X
b100 v
1o
1r
0[
0U
b1001 5#
b100 `
b100 n
1d
b1000 Q
b1000 :#
1$
1!
#70
0$
0!
#71
b101 1
b101 -"
b101 ,
b101 -$
b101 4$
b11101111000000100000000100110111 O
b11101111000000100000000100110111 '"
b11101111000000100000000100110111 N
b11101111000000100000000100110111 \
b11101111000000100000000100110111 f
b11101111000000100000000100110111 &"
b101 9
1r
0U
b11101111000000100000000100110111 Z
b11101111000000100000000100110111 t
b11101111 $"
b101 >
b101 M
b101 X
b101 v
0[
b11101111 =
b11101111 H
b11101111 V
b11101111 q
0o
b11101111 (
b11101111 /"
b11101111 +
b11101111 2$
b1010 5#
b1001 Q
b101 x
b1 |
b100 }
1w
b11101111 1$
b11101111 6$
b100 9$
b1001 :#
1$
1!
#72
0$
0!
#73
b10000 $"
b110 1
b110 -"
b110 ,
b110 -$
b110 4$
b10000 =
b10000 H
b10000 V
b10000 q
b110 9
b10000000000100000000111101111 O
b10000000000100000000111101111 '"
b10000000000100000000111101111 N
b10000000000100000000111101111 \
b10000000000100000000111101111 f
b10000000000100000000111101111 &"
b10000 (
b10000 /"
b10000 +
b10000 2$
b110 >
b110 M
b110 X
b110 v
b10000000000100000000111101111 Z
b10000000000100000000111101111 t
b100000000111101111 %"
b1011 5#
b10000 1$
b10000 6$
b101 9$
b110 x
b100000000111101111 {
b10 |
b1010 Q
b1010 :#
1$
1!
#74
0$
0!
#75
b111 1
b111 -"
b111 ,
b111 -$
b111 4$
b10000000 $"
b111 9
b10000000000000100001000011101111 O
b10000000000000100001000011101111 '"
b10000000000000100001000011101111 N
b10000000000000100001000011101111 \
b10000000000000100001000011101111 f
b10000000000000100001000011101111 &"
b10000000 =
b10000000 H
b10000000 V
b10000000 q
b111 >
b111 M
b111 X
b111 v
b10000000000000100001000011101111 Z
b10000000000000100001000011101111 t
b100001000011101111 %"
b10000000 (
b10000000 /"
b10000000 +
b10000000 2$
b1100 5#
b1011 Q
b111 x
b100001000011101111 {
b11 |
b10000000 1$
b10000000 6$
b110 9$
b1011 :#
1$
1!
#76
0$
0!
#77
0r
1U
1[
b111 1
b111 -"
b111 ,
b111 -$
b111 4$
b11011 $"
b111 9
b11011 =
b11011 H
b11011 V
b11011 q
b11011100000000001000011101111 O
b11011100000000001000011101111 '"
b11011100000000001000011101111 N
b11011100000000001000011101111 \
b11011100000000001000011101111 f
b11011100000000001000011101111 &"
b111 >
b111 M
b111 X
b111 v
b11011 (
b11011 /"
b11011 +
b11011 2$
b11011100000000001000011101111 Z
b11011100000000001000011101111 t
b100000000001000011101111 %"
0o
b1101 5#
b11011 1$
b11011 6$
b111 9$
b100000000001000011101111 {
0w
b0 |
b1100 Q
b1100 :#
1$
1!
#78
0$
0!
#79
1J
1P
0Y
1^
b1110 5#
b1101 Q
b11011100000000001000011101111 ]
b11011100000000001000011101111 e
b1101 :#
0U
0d
1$
1!
#80
0$
0!
#81
0J
0P
1Y
0^
b11011100000000001000011101111 O
b11011100000000001000011101111 '"
b11011100000000001000011101111 N
b11011100000000001000011101111 \
b11011100000000001000011101111 f
b11011100000000001000011101111 &"
b0 ]
b0 e
b10 h
b1111 5#
b100 )"
b1000 K
b1000 _
b1000 i
b1000 *"
b1110 Q
b1110 :#
1$
1!
#82
0$
0!
#83
b0 1
b0 -"
b1000 ,
b1000 -$
b1000 4$
b1000 9
b1000 >
b1000 M
b1000 X
b1000 v
1o
1r
0[
0U
b10000 5#
b1111 Q
b1000 `
b1000 n
1d
b1111 :#
1$
1!
#84
0$
0!
#85
b10011100000000001000011101111 O
b10011100000000001000011101111 '"
b10011100000000001000011101111 N
b10011100000000001000011101111 \
b10011100000000001000011101111 f
b10011100000000001000011101111 &"
b1 1
b1 -"
b1001 ,
b1001 -$
b1001 4$
b10011100000000001000011101111 Z
b10011100000000001000011101111 t
b10011 $"
b1001 9
1r
0U
b10011 =
b10011 H
b10011 V
b10011 q
b1001 >
b1001 M
b1001 X
b1001 v
0[
b10011 (
b10011 /"
b10011 +
b10011 2$
0o
b10001 5#
b10011 1$
b10011 6$
b1000 9$
b1001 x
b1 |
b1000 }
1w
b10000 Q
b10000 :#
1$
1!
#86
0$
0!
